// Jest Snapshot v1, https://goo.gl/fbAQLP

exports[`Project remove modal initialized matches the snapshot 1`] = `
<form
  action="some/path"
  method="post"
>
  <input
    name="_method"
    type="hidden"
    value="delete"
  />
   
  <input
    name="authenticity_token"
    type="hidden"
  />
   
  <gl-button-stub
    buttontextclasses=""
    category="primary"
    icon=""
    role="button"
    size="medium"
    tabindex="0"
    variant="danger"
  >
    Delete project
  </gl-button-stub>
   
  <gl-modal-stub
    actioncancel="[object Object]"
    actionprimary="[object Object]"
    dismisslabel="Close"
    footer-class="gl-bg-gray-10 gl-p-5"
    modalclass=""
    modalid="fakeUniqueId"
    ok-variant="danger"
    size="md"
    title-class="gl-text-red-500"
    titletag="h4"
  >
     
    <div>
      <gl-alert-stub
        class="gl-mb-5"
        dismisslabel="Dismiss"
        primarybuttonlink=""
        primarybuttontext=""
        secondarybuttonlink=""
        secondarybuttontext=""
        title=""
        variant="danger"
      >
        <h4
          class="gl-alert-title"
          data-testid="delete-alert-title"
        >
          
          You are about to delete this project containing:
        
        </h4>
         
        <ul>
          <li>
            1 issue
          </li>
           
          <li>
            2 merge requests
          </li>
           
          <li>
            3 forks
          </li>
           
          <li>
            4 stars
          </li>
        </ul>
         This project is 
        <strong>
          NOT
        </strong>
         a fork. This process deletes the project repository and all related resources.
      </gl-alert-stub>
       
      <p
        class="gl-mb-1"
      >
        Enter the following to confirm:
      </p>
       
      <p>
        <code
          class="gl-white-space-pre-wrap"
        >
          foo
        </code>
      </p>
       
      <gl-form-input-stub
        id="confirm_name_input"
        name="confirm_name_input"
        type="text"
      />
       
      <p
        class="gl-display-flex gl-display-flex gl-align-items-center gl-mt-3 gl-mb-0 gl-text-gray-500"
      >
        This project can be restored until 2020-12-12. 
        <gl-link-stub
          aria-label="Restoring projects"
          class="gl-display-flex gl-ml-2"
          href="recovery/help/path"
        >
          Learn More.
      
        </gl-link-stub>
      </p>
    </div>
  </gl-modal-stub>
</form>
`;
